<svg width="22" height="22" viewBox="0 0 22 22" fill="none" xmlns="http://www.w3.org/2000/svg">
<path d="M18.9181 12.9583L18.8274 12.0463L18.7971 12.049L18.7678 12.0545L18.9181 12.9583ZM18.9181 12.9583L19.0098 13.8704L19.0401 13.8677L19.0694 13.8631L18.9181 12.9583ZM15.2148 17.9835L15.7951 17.274L15.7877 17.2685L15.2148 17.9835ZM15.2148 17.9835L14.6346 18.693L14.6419 18.6994L15.2148 17.9835ZM6.78514 17.9835L6.2049 17.2749L6.19023 17.2868L6.17648 17.2988L6.78514 17.9835ZM6.78514 17.9835L7.36539 18.6939L7.38006 18.682L7.39381 18.6692L6.78514 17.9835ZM3.08089 9.04234V8.12568H3.03506L2.99014 8.13026L3.08089 9.04234ZM3.08089 9.04234V9.95901H3.12673L3.17256 9.95443L3.08089 9.04234ZM13.8701 2.98959C13.8547 2.8133 13.833 2.63752 13.8068 2.46251C13.7782 2.26995 13.7194 2.0831 13.6326 1.90884L12.0037 2.75034C11.9826 2.70909 11.9872 2.69443 11.9991 2.76684C12.0129 2.84843 12.0248 2.96209 12.0459 3.17293L13.8701 2.98959ZM13.9571 3.86043C14.0149 3.93559 13.9956 3.96951 13.9636 3.79076C13.9333 3.62026 13.9095 3.38101 13.8701 2.98959L12.045 3.17201C12.0816 3.53318 12.1128 3.85768 12.1596 4.11618C12.2045 4.36368 12.2833 4.68909 12.4987 4.97143L13.9571 3.86043ZM13.9571 3.86043L12.4987 4.97143C12.6949 5.22887 12.9557 5.42979 13.2547 5.55376C13.5537 5.67774 13.8802 5.72035 14.201 5.67726L13.9571 3.86043ZM14.6336 3.30584C14.4282 3.47947 14.2169 3.64609 14.0002 3.80543C13.8508 3.90901 13.8627 3.87234 13.9571 3.86043L14.201 5.67726C14.553 5.62959 14.839 5.45543 15.0461 5.31059C15.2616 5.16209 15.5136 4.95493 15.7941 4.72484L14.6336 3.30584ZM15.565 2.71001C15.3806 2.77168 15.207 2.86201 15.0507 2.97768C14.9224 3.06934 14.7785 3.18759 14.6336 3.30584L15.7941 4.72484C15.9582 4.59101 16.0471 4.51859 16.115 4.47093C16.1746 4.42784 16.1663 4.44251 16.1232 4.45626L15.565 2.71001ZM16.852 2.77418C16.4449 2.59776 15.9876 2.57496 15.565 2.71001L16.1232 4.45626L16.852 2.77418ZM17.7191 3.45984C17.5958 3.33288 17.4683 3.20998 17.3369 3.09134C17.1926 2.96075 17.0287 2.85371 16.8511 2.77418L16.1232 4.45626C16.0811 4.43793 16.0746 4.42326 16.1296 4.47184C16.192 4.52684 16.2736 4.60659 16.423 4.75601L17.7191 3.45984ZM18.5386 4.27934L17.7191 3.45984L16.423 4.75601L17.2425 5.57551L18.5386 4.27934ZM19.2243 5.14651C19.1448 4.96891 19.0377 4.80495 18.9071 4.66068C18.7883 4.52981 18.6654 4.40264 18.5386 4.27934L17.2425 5.57643C17.3919 5.72584 17.4716 5.80743 17.5266 5.86976C17.5752 5.92476 17.5606 5.91834 17.5422 5.87618L19.2243 5.14651ZM19.2885 6.43351C19.4235 6.01088 19.4007 5.55361 19.2243 5.14651L17.5422 5.87618L19.2885 6.43351ZM18.6926 7.36484C18.8067 7.22957 18.9162 7.09046 19.0208 6.94776C19.118 6.81209 19.2225 6.64343 19.2885 6.43351L17.5422 5.87618C17.556 5.83309 17.5697 5.82393 17.5276 5.88443C17.4799 5.95134 17.4084 6.04026 17.2736 6.20434L18.6926 7.36484ZM18.1381 8.04226C18.1261 8.13668 18.0895 8.14768 18.1931 7.99826C18.2911 7.85618 18.4433 7.66918 18.6926 7.36484L17.2736 6.20434C17.0445 6.48484 16.8364 6.73693 16.687 6.95234C16.5431 7.15951 16.3689 7.44551 16.3212 7.79751L18.1381 8.04226ZM18.1381 8.04226L16.3212 7.79751C16.2781 8.1183 16.3208 8.44478 16.4447 8.74376C16.5687 9.04275 16.7696 9.30358 17.0271 9.49976L18.1381 8.04226ZM19.0089 8.12934C18.7409 8.10691 18.4736 8.07542 18.2077 8.03493C18.029 8.00284 18.0629 7.98451 18.1381 8.04226L17.0271 9.49976C17.3094 9.71518 17.6339 9.79401 17.8832 9.83893C18.1408 9.88476 18.4653 9.91684 18.8265 9.95351L19.0089 8.12934ZM20.0896 8.36584C19.9154 8.27905 19.7285 8.22027 19.536 8.19168C19.361 8.16546 19.1852 8.14467 19.0089 8.12934L18.8265 9.95351C18.9622 9.96547 19.0976 9.98075 19.2326 9.99934C19.3059 10.0122 19.2903 10.0168 19.2491 9.99568L20.0896 8.36584ZM20.9541 9.32193C20.7911 8.90911 20.484 8.56941 20.0896 8.36584L19.25 9.99751L20.9541 9.32193ZM21.0824 10.4201C21.0824 10.2331 21.0824 10.047 21.0723 9.88934C21.0628 9.69481 21.0226 9.503 20.9531 9.32101L19.25 9.99751C19.2335 9.95443 19.239 9.93976 19.2445 10.0131C19.25 10.0956 19.25 10.2102 19.25 10.4219L21.0824 10.4201ZM21.0824 11.5788V10.4201H19.2491V11.5788H21.0824ZM20.9541 12.6769C21.0347 12.4725 21.0613 12.2763 21.0723 12.1086C21.0824 11.9518 21.0824 11.7658 21.0824 11.5788H19.2491C19.2491 11.7905 19.2491 11.9051 19.2436 11.9876C19.2381 12.0609 19.2326 12.0463 19.2491 12.0032L20.9541 12.6769ZM20.0896 13.633C20.484 13.4294 20.7911 13.0897 20.9541 12.6769L19.25 12.0041L20.0896 13.633ZM19.0089 13.8695C19.1959 13.8512 19.3801 13.8328 19.536 13.8072C19.701 13.7797 19.8935 13.7338 20.0896 13.633L19.25 12.0041C19.2903 11.983 19.3059 11.9876 19.2335 11.9995C19.0986 12.019 18.9632 12.0346 18.8274 12.0463L19.0089 13.8695ZM18.139 13.9566C18.0629 14.0143 18.029 13.996 18.2077 13.9639C18.3782 13.9337 18.6175 13.9089 19.0089 13.8695L18.8265 12.0453C18.4662 12.082 18.1408 12.1132 17.8832 12.1599C17.6348 12.2048 17.3094 12.2837 17.0271 12.4991L18.139 13.9566ZM18.139 13.9566L17.0271 12.4991C16.7696 12.6953 16.5687 12.9561 16.4447 13.2551C16.3208 13.5541 16.2781 13.8806 16.3212 14.2013L18.139 13.9566ZM18.6926 14.6331C18.5191 14.4279 18.3525 14.217 18.1931 14.0006C18.0895 13.8512 18.1271 13.8622 18.139 13.9566L16.3212 14.2013C16.3689 14.5533 16.5431 14.8393 16.6879 15.0465C16.8373 15.2619 17.0445 15.514 17.2736 15.7945L18.6926 14.6331ZM19.2885 15.5644C19.2267 15.3803 19.1364 15.2071 19.0208 15.0511C18.9291 14.9218 18.8109 14.7788 18.6926 14.6331L17.2736 15.7945C17.4075 15.9586 17.4799 16.0466 17.5276 16.1144C17.5706 16.174 17.5569 16.1667 17.5422 16.1236L19.2885 15.5644ZM19.2243 16.8523C19.401 16.445 19.4238 15.9873 19.2885 15.5644L17.5422 16.1236L19.2243 16.8523ZM18.5386 17.7195C18.6716 17.5866 18.8026 17.4564 18.9071 17.3373C19.0171 17.2108 19.1363 17.054 19.2243 16.8514L17.5422 16.1227C17.5606 16.0805 17.5752 16.075 17.5266 16.13C17.4716 16.1923 17.3919 16.273 17.2425 16.4233L18.5386 17.7195ZM17.7191 18.5381L18.5386 17.7195L17.2425 16.4233L16.423 17.2419L17.7191 18.5381ZM16.852 19.2247C17.0296 19.1449 17.1936 19.0375 17.3378 18.9066C17.4561 18.803 17.5871 18.671 17.7191 18.5381L16.423 17.2419C16.3279 17.3394 16.2301 17.4342 16.1296 17.5261C16.0746 17.5756 16.0811 17.5609 16.1232 17.5426L16.852 19.2247ZM15.565 19.2888C15.9876 19.4239 16.4449 19.4011 16.852 19.2247L16.1232 17.5426L15.565 19.2888ZM14.6336 18.693C14.7785 18.8113 14.9215 18.9295 15.0507 19.0212C15.1864 19.1174 15.3551 19.2219 15.565 19.2888L16.1232 17.5426C16.1663 17.5563 16.1746 17.5701 16.1141 17.5279C16.005 17.4464 15.8983 17.3617 15.7941 17.274L14.6336 18.693ZM13.9571 18.1393C13.8627 18.1256 13.8508 18.0889 14.0002 18.1925C14.1423 18.2915 14.3284 18.4428 14.6327 18.6921L15.7941 17.274C15.5136 17.0439 15.2616 16.8368 15.0461 16.6873C14.839 16.5425 14.553 16.3693 14.201 16.3216L13.9571 18.1393ZM13.9571 18.1393L14.201 16.3216C13.8802 16.2785 13.5537 16.3211 13.2547 16.4451C12.9557 16.5691 12.6949 16.77 12.4987 17.0274L13.9571 18.1393ZM13.8691 19.0093C13.9086 18.6178 13.9333 18.3777 13.9636 18.2081C13.9956 18.0293 14.014 18.0623 13.9562 18.1384L12.4987 17.0265C12.2833 17.3088 12.2045 17.6343 12.1596 17.8827C12.1137 18.1412 12.0826 18.4657 12.0459 18.8268L13.8691 19.0093ZM13.6317 20.09C13.7326 19.8938 13.7784 19.7013 13.8059 19.5363C13.8334 19.3805 13.8499 19.1963 13.8691 19.0093L12.0459 18.8268C12.0337 18.9629 12.0178 19.0977 11.9982 19.2329C11.9863 19.3063 11.9817 19.2907 12.0028 19.2494L13.6317 20.09ZM12.6775 20.9544C13.0896 20.7911 13.4286 20.484 13.6317 20.09L12.0037 19.2503L12.6775 20.9544ZM11.5775 21.0828C11.7654 21.0828 11.9515 21.0828 12.1091 21.0727C12.276 21.0617 12.4721 21.0369 12.6775 20.9544L12.0037 19.2503C12.0468 19.2338 12.0615 19.2393 11.9881 19.2448C11.8519 19.2506 11.7156 19.2524 11.5793 19.2503L11.5775 21.0828ZM10.4197 21.0828H11.5775L11.5784 19.2494H10.4197V21.0828ZM9.32156 20.9544C9.52598 21.0351 9.72214 21.0617 9.88989 21.0727C10.0466 21.0828 10.2327 21.0828 10.4197 21.0828V19.2494C10.208 19.2494 10.0934 19.2494 10.0109 19.2439C9.93756 19.2384 9.95223 19.2329 9.99531 19.2494L9.32156 20.9544ZM8.36548 20.09C8.56904 20.4844 8.90875 20.7915 9.32156 20.9544L9.99531 19.2494L8.36548 20.09ZM8.12898 19.0093C8.14731 19.1963 8.16564 19.3805 8.19131 19.5363C8.21881 19.7013 8.26465 19.8938 8.36548 20.09L9.99714 19.2503C10.0182 19.2907 10.0136 19.3063 10.0017 19.2338C9.98221 19.099 9.96662 18.9635 9.95498 18.8278L8.12898 19.0093ZM8.04189 18.1384C7.98414 18.0633 8.00248 18.0284 8.03456 18.2081C8.06481 18.3777 8.08956 18.6178 8.12898 19.0093L9.95314 18.8268C9.91648 18.4657 9.88531 18.1412 9.83856 17.8827C9.79364 17.6352 9.71481 17.3098 9.49939 17.0274L8.04189 18.1384ZM8.04189 18.1384L9.49939 17.0274C9.30322 16.77 9.04238 16.5691 8.7434 16.4451C8.44441 16.3211 8.11793 16.2785 7.79714 16.3216L8.04189 18.1384ZM7.36448 18.693C7.66973 18.4437 7.85581 18.2915 7.9979 18.1934C8.14731 18.0898 8.13631 18.1265 8.04189 18.1384L7.79714 16.3216C7.44514 16.3693 7.15914 16.5434 6.95198 16.6883C6.73656 16.8368 6.48448 17.0439 6.20398 17.274L7.36448 18.693ZM6.43315 19.2888C6.61755 19.2272 6.7911 19.1368 6.94739 19.0212C7.07573 18.9295 7.21965 18.8113 7.36448 18.693L6.2049 17.2749C6.10041 17.3626 5.99433 17.4473 5.88498 17.5288C5.8254 17.5719 5.83364 17.5582 5.87673 17.5435L6.43315 19.2888ZM5.14614 19.2247C5.55325 19.4011 6.01051 19.4239 6.43315 19.2888L5.87489 17.5426L5.14614 19.2247ZM4.27806 18.539C4.41098 18.6719 4.54206 18.803 4.66123 18.9075C4.78681 19.0175 4.94356 19.1376 5.14706 19.2256L5.87489 17.5426C5.91706 17.5609 5.92348 17.5756 5.86848 17.527C5.76798 17.4351 5.67016 17.3404 5.57514 17.2428L4.27806 18.539ZM3.45948 17.7195L4.27898 18.539L5.57514 17.2428L4.75565 16.4233L3.45948 17.7195ZM2.77381 16.8523C2.86089 17.054 2.98098 17.2117 3.09098 17.3382C3.19548 17.4564 3.32656 17.5875 3.45948 17.7195L4.75565 16.4233C4.65813 16.3283 4.56336 16.2305 4.47148 16.13C4.42289 16.075 4.43756 16.0814 4.45589 16.1236L2.77381 16.8523ZM2.70964 15.5653C2.5746 15.988 2.59739 16.4452 2.77381 16.8523L4.45589 16.1236L2.70964 15.5653ZM3.30548 14.634C3.19141 14.7693 3.08195 14.9084 2.97731 15.0511C2.86164 15.2074 2.77131 15.3809 2.70964 15.5653L4.45589 16.1236C4.44123 16.1667 4.42839 16.1749 4.47056 16.1144C4.51823 16.0475 4.58973 15.9586 4.72448 15.7945L3.30548 14.634ZM3.85914 13.9566C3.87198 13.8622 3.90864 13.8512 3.80506 14.0006C3.70698 14.1427 3.55481 14.3297 3.30548 14.634L4.72448 15.7945C4.95364 15.514 5.16173 15.2619 5.31114 15.0465C5.45506 14.8393 5.62923 14.5533 5.67689 14.2013L3.85914 13.9566ZM3.85914 13.9566L5.67689 14.2013C5.71998 13.8806 5.67737 13.5541 5.5534 13.2551C5.42942 12.9561 5.2285 12.6953 4.97106 12.4991L3.85914 13.9566ZM2.98831 13.8695C3.38064 13.9089 3.62081 13.9337 3.7904 13.9639C3.96915 13.996 3.93523 14.0143 3.85914 13.9566L4.97106 12.4991C4.68873 12.2837 4.36423 12.2048 4.11489 12.1599C3.85731 12.1141 3.53281 12.082 3.17073 12.0453L2.98831 13.8695ZM1.90848 13.633C2.10464 13.7338 2.29714 13.7797 2.46214 13.8072C2.61798 13.8328 2.80223 13.8521 2.98923 13.8704L3.17073 12.0453C3.03495 12.034 2.90045 12.0187 2.76556 11.9995C2.69223 11.9867 2.70781 11.9821 2.74906 12.0032L1.90848 13.633ZM1.04498 12.6778C1.2079 13.0907 1.51503 13.4304 1.90939 13.6339L2.74998 12.0041L1.04498 12.6778ZM0.916645 11.5797C0.916645 11.7667 0.916645 11.9528 0.926728 12.1104C0.937728 12.2773 0.963395 12.4734 1.04589 12.6788L2.74998 12.0032C2.76648 12.0463 2.76098 12.0609 2.75639 11.9876C2.75035 11.8517 2.74821 11.7157 2.74998 11.5797H0.916645ZM0.916645 10.421V11.5797H2.74998V10.421H0.916645ZM1.04498 9.32193C0.975926 9.50398 0.936019 9.69578 0.926728 9.89026C0.915728 10.0479 0.916645 10.234 0.916645 10.4219H2.74998C2.74998 10.2093 2.74998 10.0947 2.75639 10.0122C2.76098 9.93884 2.76648 9.95351 2.74998 9.99659L1.04498 9.32193ZM1.90939 8.36768C1.51536 8.57079 1.20827 8.9098 1.04498 9.32193L2.74998 9.99659L1.90939 8.36768ZM2.99014 8.12934C2.80314 8.14859 2.61889 8.16601 2.46306 8.19351C2.29806 8.22101 2.10556 8.26684 1.90939 8.36768L2.74998 9.99659C2.70873 10.0177 2.69406 10.0131 2.76648 10.0012C2.90136 9.98165 3.03677 9.96606 3.17256 9.95443L2.99014 8.12934ZM3.86098 8.04318C3.93706 7.98543 3.97098 8.00376 3.79131 8.03584C3.62173 8.06609 3.38156 8.09084 2.99014 8.13026L3.17256 9.95443C3.53281 9.91776 3.85823 9.88659 4.11673 9.83984C4.36514 9.79493 4.69056 9.71609 4.9729 9.50068L3.86098 8.04318ZM3.86098 8.04318L4.9729 9.50068C5.23017 9.3044 5.43091 9.04351 5.55472 8.74454C5.67853 8.44556 5.721 8.11913 5.67781 7.79843L3.86098 8.04318ZM3.30639 7.36576C3.55573 7.67009 3.70789 7.85709 3.80689 7.99918C3.91048 8.14859 3.87381 8.13759 3.86098 8.04318L5.67781 7.79843C5.63014 7.44643 5.45689 7.16134 5.31206 6.95326C5.16264 6.73784 4.95456 6.48576 4.72539 6.20526L3.30639 7.36576ZM2.71056 6.43351C2.77748 6.64434 2.88106 6.81209 2.97823 6.94868C3.06989 7.07701 3.18814 7.22093 3.30639 7.36576L4.72539 6.20526C4.63769 6.10078 4.55302 5.99471 4.47148 5.88534C4.42839 5.82576 4.44306 5.83309 4.45681 5.87618L2.71056 6.43351ZM2.77473 5.14743C2.59854 5.55426 2.57574 6.01116 2.71056 6.43351L4.45681 5.87618L2.77473 5.14743ZM3.46039 4.27934C3.32748 4.41226 3.19639 4.54243 3.09189 4.66159C2.9613 4.80587 2.85426 4.96982 2.77473 5.14743L4.45681 5.87618C4.43848 5.91834 4.42381 5.92476 4.47239 5.86884C4.5274 5.80651 4.60715 5.72584 4.75656 5.57551L3.46039 4.27934ZM4.2799 3.46076L3.46039 4.27934L4.75656 5.57551L5.57698 4.75693L4.2799 3.46076ZM5.14706 2.77418C4.9694 2.85399 4.80544 2.96134 4.66123 3.09226C4.53036 3.21115 4.40319 3.33404 4.2799 3.46076L5.57698 4.75693C5.7264 4.60659 5.80706 4.52684 5.86939 4.47276C5.92439 4.42326 5.91798 4.43793 5.87581 4.45626L5.14706 2.77418ZM6.43406 2.71001C6.01143 2.57496 5.55416 2.59776 5.14706 2.77418L5.87581 4.45626L6.43406 2.71001ZM7.36448 3.30584C7.21965 3.18759 7.07756 3.07026 6.94831 2.97859C6.79207 2.8626 6.61853 2.77196 6.43406 2.71001L5.87581 4.45626C5.83273 4.44251 5.82448 4.42876 5.88498 4.47093C5.95189 4.51951 6.04081 4.59101 6.2049 4.72576L7.36448 3.30584ZM8.04281 3.86043C8.13723 3.87326 8.14823 3.90993 7.99881 3.80634C7.78241 3.64698 7.57146 3.48036 7.36631 3.30676L6.2049 4.72576C6.48539 4.95493 6.73656 5.16209 6.95198 5.31243C7.15914 5.45634 7.44514 5.62959 7.79714 5.67726L8.04281 3.86043ZM8.04281 3.86043L7.79806 5.67726C8.11885 5.72035 8.44533 5.67774 8.74431 5.55376C9.0433 5.42979 9.30414 5.22887 9.50031 4.97143L8.04281 3.86043ZM8.1299 2.98959C8.09048 3.38193 8.06573 3.62209 8.03548 3.79168C8.00339 3.97043 7.98506 3.93651 8.04281 3.86043L9.50031 4.97143C9.71573 4.68909 9.79456 4.36459 9.83948 4.11618C9.88531 3.85859 9.91831 3.53318 9.95406 3.17201L8.1299 2.98959ZM8.36639 1.90976C8.27959 2.08401 8.22082 2.27086 8.19223 2.46343C8.16656 2.61926 8.14823 2.80351 8.1299 2.99051L9.95406 3.17201C9.96602 3.0363 9.9813 2.90181 9.9999 2.76684C10.0127 2.69351 10.0173 2.71001 9.99623 2.75034L8.36639 1.90976ZM9.32248 1.04534C8.90966 1.20826 8.56996 1.5154 8.36639 1.90976L9.99623 2.75034L9.32248 1.04534ZM10.4206 0.917011C10.2336 0.917011 10.0476 0.917011 9.88989 0.927094C9.69541 0.936385 9.50361 0.976292 9.32156 1.04534L9.99714 2.75034C9.95406 2.76684 9.93939 2.76134 10.0127 2.75676C10.0952 2.75126 10.2098 2.75034 10.4216 2.75034L10.4206 0.917011ZM11.5793 0.917011H10.4206V2.75034H11.5793V0.917011ZM12.6775 1.04534C12.4954 0.976292 12.3036 0.936385 12.1091 0.927094C11.9533 0.916094 11.7672 0.917011 11.5802 0.917011V2.75034C11.792 2.75034 11.9066 2.75034 11.9891 2.75676C12.0624 2.76134 12.0468 2.76684 12.0037 2.75034L12.6775 1.04534ZM13.6336 1.90976C13.43 1.5154 13.0903 1.20826 12.6775 1.04534L12.0037 2.75034L13.6336 1.90976ZM13.75 11.0003C13.75 11.7297 13.4602 12.4292 12.9445 12.9449C12.4288 13.4606 11.7293 13.7503 11 13.7503V15.5837C12.2156 15.5837 13.3813 15.1008 14.2409 14.2413C15.1004 13.3817 15.5833 12.2159 15.5833 11.0003H13.75ZM11 8.25034C11.7293 8.25034 12.4288 8.54007 12.9445 9.0558C13.4602 9.57153 13.75 10.271 13.75 11.0003H15.5833C15.5833 9.78477 15.1004 8.61898 14.2409 7.75944C13.3813 6.8999 12.2156 6.41701 11 6.41701V8.25034ZM8.24998 11.0003C8.24998 10.271 8.53971 9.57153 9.05543 9.0558C9.57116 8.54007 10.2706 8.25034 11 8.25034V6.41701C9.7844 6.41701 8.61861 6.8999 7.75907 7.75944C6.89953 8.61898 6.41665 9.78477 6.41665 11.0003H8.24998ZM11 13.7503C10.2706 13.7503 9.57116 13.4606 9.05543 12.9449C8.53971 12.4292 8.24998 11.7297 8.24998 11.0003H6.41665C6.41665 12.2159 6.89953 13.3817 7.75907 14.2413C8.61861 15.1008 9.7844 15.5837 11 15.5837V13.7503Z" fill="white"/>
</svg>
